.. clupan_document documentation master file, created by
   sphinx-quickstart on Tue Feb 16 22:33:03 2010.
   You can adapt this file completely to your liking, but it should at least
   contain the root `toctree` directive.


.. `English page <index-e.html>`_

CLUPAN (version 0.7) in Japanese
--------------------------------
.. toctree::
    :maxdepth: 2
    :numbered:

    overview
    install 
    files
    mkposcar
    cluster
    correlation
    lsf
    gasa
    search_poscar
    gss
    mc
    ti
    tutorial

