.. clupan_document documentation master file, created by
   sphinx-quickstart on Tue Feb 16 22:33:03 2010.
   You can adapt this file completely to your liking, but it should at least
   contain the root `toctree` directive.


.. `Japanese page <index.html>`_

CLUPAN (version 0.7) in English
============================================================

.. toctree::
    :maxdepth: 2
    :numbered:

    overview-e
    install-e
    files-e
    mkposcar-e
    cluster-e
    correlation-e
    lsf-e
    gasa-e
    search_poscar-e
    gss-e
    mc-e
    ti-e
    tutorial-e

